*** Life<ConwayCell> 4x4 ***

Generation = 0, Population = 4.
....
.**.
.**.
....

Generation = 1, Population = 4.
....
.**.
.**.
....

*** Life<ConwayCell> 5x5 ***

Generation = 0, Population = 3.
.....
.....
.***.
.....
.....

Generation = 1, Population = 3.
.....
..*..
..*..
..*..
.....

Generation = 2, Population = 3.
.....
.....
.***.
.....
.....

*** Life<ConwayCell> 5x5 ***

Generation = 0, Population = 4.
.....
..*..
.*.*.
..*..
.....

Generation = 1, Population = 4.
.....
..*..
.*.*.
..*..
.....

*** Life<ConwayCell> 5x6 ***

Generation = 0, Population = 6.
......
..**..
.*..*.
..**..
......

Generation = 1, Population = 6.
......
..**..
.*..*.
..**..
......

*** Life<ConwayCell> 6x6 ***

Generation = 0, Population = 5.
......
..*...
...*..
.***..
......
......

Generation = 1, Population = 5.
......
......
.*.*..
..**..
..*...
......

Generation = 2, Population = 5.
......
......
...*..
.*.*..
..**..
......

Generation = 3, Population = 5.
......
......
..*...
...**.
..**..
......

Generation = 4, Population = 5.
......
......
...*..
....*.
..***.
......

*** Life<ConwayCell> 25x25 ***

Generation = 0, Population = 48.
.........................
...*.......*......*......
...............*.........
.*.......................
..*....................**
*........................
.......................*.
.....*....*.........*....
...........*.............
..*.........*.*..........
.........................
.....*...........**......
..*.....*...........*..*.
.*.....*.*...............
............*....*.......
.*.......*..........*....
.....*...................
....*.....*..............
*.....*...*..............
..............*..*.......
.........................
....*.*............*.....
........*..*.............
........................*
....................**...

Generation = 2, Population = 3.
.........................
.........................
.........................
.........................
.........................
.........................
.........................
.........................
.........................
.........................
.........................
.........................
.........................
.......***...............
.........................
.........................
.........................
.........................
.........................
.........................
.........................
.........................
.........................
.........................
.........................

Generation = 4, Population = 3.
.........................
.........................
.........................
.........................
.........................
.........................
.........................
.........................
.........................
.........................
.........................
.........................
.........................
.......***...............
.........................
.........................
.........................
.........................
.........................
.........................
.........................
.........................
.........................
.........................
.........................

Generation = 6, Population = 3.
.........................
.........................
.........................
.........................
.........................
.........................
.........................
.........................
.........................
.........................
.........................
.........................
.........................
.......***...............
.........................
.........................
.........................
.........................
.........................
.........................
.........................
.........................
.........................
.........................
.........................

Generation = 8, Population = 3.
.........................
.........................
.........................
.........................
.........................
.........................
.........................
.........................
.........................
.........................
.........................
.........................
.........................
.......***...............
.........................
.........................
.........................
.........................
.........................
.........................
.........................
.........................
.........................
.........................
.........................

Generation = 10, Population = 3.
.........................
.........................
.........................
.........................
.........................
.........................
.........................
.........................
.........................
.........................
.........................
.........................
.........................
.......***...............
.........................
.........................
.........................
.........................
.........................
.........................
.........................
.........................
.........................
.........................
.........................

*** Life<ConwayCell> 10x10 ***

Generation = 0, Population = 17.
......*..*
..*.....*.
*..*..***.
.....**...
..........
..........
..*.......
.....*...*
..........
.**....*..

Generation = 1, Population = 8.
..........
......*.**
.....**.*.
.....**...
..........
..........
..........
..........
..........
..........

Generation = 2, Population = 9.
..........
.....**.**
........**
.....***..
..........
..........
..........
..........
..........
..........

Generation = 3, Population = 8.
..........
.......***
.........*
......***.
......*...
..........
..........
..........
..........
..........

Generation = 4, Population = 9.
........*.
........**
......*..*
......***.
......*...
..........
..........
..........
..........
..........

*** Life<ConwayCell> 30x30 ***

Generation = 0, Population = 74.
......*...........*...........
.....*..............*.*.......
.......*.....*......*........*
...........*........*........*
.............................*
*.............................
.....*..*..............*......
..................*......*....
..............*.........**....
.*.*...*......................
.........*....................
........*.....................
*..............*..*...........
................**............
.......*......*....*.......**.
..........*....*.............*
.*....*..*..*..........*......
..**.................*........
..............................
......................*.......
...................*..........
.....*.*.....................*
................*.........*...
................*........*....
...............*.............*
..............................
.*.*.*............*..*........
.........*.**...*........*....
.....*...............*........
............*.*............*..

Generation = 5, Population = 11.
..............................
...................**.........
...................**.........
..............................
..............................
..............................
..............................
........................**....
........................**....
..............................
..............................
..............................
..............................
..............................
..............................
..............................
..............................
..............................
..............................
..............................
..............................
..............................
..............................
..............................
..............................
..............................
..............................
..............................
...........***................
..............................

Generation = 10, Population = 11.
..............................
...................**.........
...................**.........
..............................
..............................
..............................
..............................
........................**....
........................**....
..............................
..............................
..............................
..............................
..............................
..............................
..............................
..............................
..............................
..............................
..............................
..............................
..............................
..............................
..............................
..............................
..............................
..............................
............*.................
............*.................
............*.................

Generation = 15, Population = 11.
..............................
...................**.........
...................**.........
..............................
..............................
..............................
..............................
........................**....
........................**....
..............................
..............................
..............................
..............................
..............................
..............................
..............................
..............................
..............................
..............................
..............................
..............................
..............................
..............................
..............................
..............................
..............................
..............................
..............................
...........***................
..............................

Generation = 20, Population = 11.
..............................
...................**.........
...................**.........
..............................
..............................
..............................
..............................
........................**....
........................**....
..............................
..............................
..............................
..............................
..............................
..............................
..............................
..............................
..............................
..............................
..............................
..............................
..............................
..............................
..............................
..............................
..............................
..............................
............*.................
............*.................
............*.................

*** Life<ConwayCell> 35x35 ***

Generation = 0, Population = 56.
..................................*
.......................*.......*...
.....*....*.*...*..................
.......*..................*........
............*.*....................
...................................
......*............................
...*.......................*.......
..........**.........*.............
...................................
.*.................................
......*.......................*....
.........*...*...........*.........
.........*...........*.............
......................*............
...................................
..*................................
.......*.........................*.
....*..............................
.......*..*........................
....*..............................
...............*...................
.....*....................*........
*..................................
..*.........................*......
*..................................
....*.........*.............*......
.*.................................
................*..................
..................*..........*.*...
...............*....*..............
..*..*......................*......
.........................*.........
...................................
.................*...........*.....

Generation = 5, Population = 0.
...................................
...................................
...................................
...................................
...................................
...................................
...................................
...................................
...................................
...................................
...................................
...................................
...................................
...................................
...................................
...................................
...................................
...................................
...................................
...................................
...................................
...................................
...................................
...................................
...................................
...................................
...................................
...................................
...................................
...................................
...................................
...................................
...................................
...................................
...................................

Generation = 10, Population = 0.
...................................
...................................
...................................
...................................
...................................
...................................
...................................
...................................
...................................
...................................
...................................
...................................
...................................
...................................
...................................
...................................
...................................
...................................
...................................
...................................
...................................
...................................
...................................
...................................
...................................
...................................
...................................
...................................
...................................
...................................
...................................
...................................
...................................
...................................
...................................

Generation = 15, Population = 0.
...................................
...................................
...................................
...................................
...................................
...................................
...................................
...................................
...................................
...................................
...................................
...................................
...................................
...................................
...................................
...................................
...................................
...................................
...................................
...................................
...................................
...................................
...................................
...................................
...................................
...................................
...................................
...................................
...................................
...................................
...................................
...................................
...................................
...................................
...................................

Generation = 20, Population = 0.
...................................
...................................
...................................
...................................
...................................
...................................
...................................
...................................
...................................
...................................
...................................
...................................
...................................
...................................
...................................
...................................
...................................
...................................
...................................
...................................
...................................
...................................
...................................
...................................
...................................
...................................
...................................
...................................
...................................
...................................
...................................
...................................
...................................
...................................
...................................

*** Life<ConwayCell> 40x40 ***

Generation = 0, Population = 49.
........................................
........................................
...........................*............
......*....*..................*.........
.......*.......*........................
........................................
.........*..............................
........*....................*..........
........................................
..*..................*..................
...................*....................
..*.....*...........*...................
................*...*...................
......*.................................
.......*...........*....................
........................................
.........................*..............
...................................*....
........................................
............*...........................
..........................*.............
.......................................*
...*......*.......*......*..............
......*.................................
.................*......................
.....*..................................
............*.............*.............
...............*........................
........................*...............
.......*.....*..........................
........................................
........................................
........................................
...............***......................
....*..................................*
..........*.............................
.*......*.........*..............*......
........................................
....*...................................
........................................

Generation = 5, Population = 7.
........................................
........................................
........................................
........................................
........................................
........................................
........................................
........................................
........................................
........................................
...................**...................
...................**...................
........................................
........................................
........................................
........................................
........................................
........................................
........................................
........................................
........................................
........................................
........................................
........................................
........................................
........................................
........................................
........................................
........................................
........................................
........................................
........................................
................*.......................
................*.......................
................*.......................
........................................
........................................
........................................
........................................
........................................

Generation = 10, Population = 7.
........................................
........................................
........................................
........................................
........................................
........................................
........................................
........................................
........................................
........................................
...................**...................
...................**...................
........................................
........................................
........................................
........................................
........................................
........................................
........................................
........................................
........................................
........................................
........................................
........................................
........................................
........................................
........................................
........................................
........................................
........................................
........................................
........................................
........................................
...............***......................
........................................
........................................
........................................
........................................
........................................
........................................

Generation = 15, Population = 7.
........................................
........................................
........................................
........................................
........................................
........................................
........................................
........................................
........................................
........................................
...................**...................
...................**...................
........................................
........................................
........................................
........................................
........................................
........................................
........................................
........................................
........................................
........................................
........................................
........................................
........................................
........................................
........................................
........................................
........................................
........................................
........................................
........................................
................*.......................
................*.......................
................*.......................
........................................
........................................
........................................
........................................
........................................

Generation = 20, Population = 7.
........................................
........................................
........................................
........................................
........................................
........................................
........................................
........................................
........................................
........................................
...................**...................
...................**...................
........................................
........................................
........................................
........................................
........................................
........................................
........................................
........................................
........................................
........................................
........................................
........................................
........................................
........................................
........................................
........................................
........................................
........................................
........................................
........................................
........................................
...............***......................
........................................
........................................
........................................
........................................
........................................
........................................

*** Life<ConwayCell> 50x50 ***

Generation = 0, Population = 96.
..................................................
..............................*...................
......*...........................................
.*.................*..............................
.................................................*
.........................*........................
.......................*.........*................
..................................................
...............*.............................*....
...........................*........*.............
..................................................
..................*.......................*.......
....................*..*...*......................
.......*..................*.......................
.................*..........*.....................
....................*..................*..........
..................................................
.*....*......................*.....*......*.......
............................*................*....
.................*......*.........................
..................*...............................
.....*.............*..............................
........*...........................*.............
..................................................
..............*......*.......................*....
.......*..........................................
..................*.........*.......*.............
...............*..................................
.....................*.......*....................
..*....................*.............**...........
..................................................
.................*.......*........................
.*........*..................**..............*....
....................................*.............
..............*............**........*............
...........................................*......
.....*.........*.........................**.......
......*.*...................*.....................
..................................*...............
............*.....................................
.........*................*..*...................*
*.............................*...................
..................................................
*.....*....*.......................*.....*........
...................*...................*..........
....................*.............................
.*.....................*.....*.*..................
..**.................*............................
........................*.........................
.....................*............................

Generation = 6, Population = 0.
..................................................
..................................................
..................................................
..................................................
..................................................
..................................................
..................................................
..................................................
..................................................
..................................................
..................................................
..................................................
..................................................
..................................................
..................................................
..................................................
..................................................
..................................................
..................................................
..................................................
..................................................
..................................................
..................................................
..................................................
..................................................
..................................................
..................................................
..................................................
..................................................
..................................................
..................................................
..................................................
..................................................
..................................................
..................................................
..................................................
..................................................
..................................................
..................................................
..................................................
..................................................
..................................................
..................................................
..................................................
..................................................
..................................................
..................................................
..................................................
..................................................
..................................................

Generation = 12, Population = 0.
..................................................
..................................................
..................................................
..................................................
..................................................
..................................................
..................................................
..................................................
..................................................
..................................................
..................................................
..................................................
..................................................
..................................................
..................................................
..................................................
..................................................
..................................................
..................................................
..................................................
..................................................
..................................................
..................................................
..................................................
..................................................
..................................................
..................................................
..................................................
..................................................
..................................................
..................................................
..................................................
..................................................
..................................................
..................................................
..................................................
..................................................
..................................................
..................................................
..................................................
..................................................
..................................................
..................................................
..................................................
..................................................
..................................................
..................................................
..................................................
..................................................
..................................................

Generation = 18, Population = 0.
..................................................
..................................................
..................................................
..................................................
..................................................
..................................................
..................................................
..................................................
..................................................
..................................................
..................................................
..................................................
..................................................
..................................................
..................................................
..................................................
..................................................
..................................................
..................................................
..................................................
..................................................
..................................................
..................................................
..................................................
..................................................
..................................................
..................................................
..................................................
..................................................
..................................................
..................................................
..................................................
..................................................
..................................................
..................................................
..................................................
..................................................
..................................................
..................................................
..................................................
..................................................
..................................................
..................................................
..................................................
..................................................
..................................................
..................................................
..................................................
..................................................
..................................................

Generation = 24, Population = 0.
..................................................
..................................................
..................................................
..................................................
..................................................
..................................................
..................................................
..................................................
..................................................
..................................................
..................................................
..................................................
..................................................
..................................................
..................................................
..................................................
..................................................
..................................................
..................................................
..................................................
..................................................
..................................................
..................................................
..................................................
..................................................
..................................................
..................................................
..................................................
..................................................
..................................................
..................................................
..................................................
..................................................
..................................................
..................................................
..................................................
..................................................
..................................................
..................................................
..................................................
..................................................
..................................................
..................................................
..................................................
..................................................
..................................................
..................................................
..................................................
..................................................
..................................................

Generation = 30, Population = 0.
..................................................
..................................................
..................................................
..................................................
..................................................
..................................................
..................................................
..................................................
..................................................
..................................................
..................................................
..................................................
..................................................
..................................................
..................................................
..................................................
..................................................
..................................................
..................................................
..................................................
..................................................
..................................................
..................................................
..................................................
..................................................
..................................................
..................................................
..................................................
..................................................
..................................................
..................................................
..................................................
..................................................
..................................................
..................................................
..................................................
..................................................
..................................................
..................................................
..................................................
..................................................
..................................................
..................................................
..................................................
..................................................
..................................................
..................................................
..................................................
..................................................
..................................................
